%YAML 1.1
%TAG !u! tag:unity3d.com,2011:
--- !u!114 &11400000
MonoBehaviour:
  m_ObjectHideFlags: 0
  m_CorrespondingSourceObject: {fileID: 0}
  m_PrefabInstance: {fileID: 0}
  m_PrefabAsset: {fileID: 0}
  m_GameObject: {fileID: 0}
  m_Enabled: 1
  m_EditorHideFlags: 0
  m_Script: {fileID: 11500000, guid: 6db36b0debca94316860ae2e6ad2806a, type: 3}
  m_Name: SkyPhysicsData_Imran
  m_EditorClassIdentifier: 
  gravity: {x: 0, y: -9.81, z: 0}
  mass: 5
  linearDrag: 0.3
  angularDrag: 3
  horizontalForce: 50
  forwardForce: 7000
